22

96 125
14
t 41 68 e
r 36 41 e
f 31 39 s
r 9 15 s
r 34 108 n
t 72 107 e
f 54 47 w
r 55 80 s
h 44 98 e
f 71 63 n
f 50 17 s
t 52 83 e
h 13 92 s
r 4 107 w
133 177

119 6
1
f 12 5 s
146 166

77 129
6
t 74 53 n
r 38 21 n
f 38 89 s
r 6 92 n
t 29 33 s
t 37 114 w
62 97

13 82
15
h 1 44 n
t 2 21 e
t 1 44 n
h 5 6 n
r 12 40 n
f 11 52 s
h 1 30 n
r 12 38 s
t 9 71 n
t 10 33 s
r 1 48 w
r 5 24 e
t 1 6 n
t 3 68 s
h 11 38 e
198 177

18 109
8
t 0 36 w
r 9 58 n
f 14 32 s
f 14 39 s
f 5 42 s
f 4 4 n
t 15 84 w
r 2 14 n
17 39

96 180
4
r 95 139 n
t 17 171 w
t 27 84 s
h 65 18 w
60 152

114 63
10
h 23 18 e
f 84 21 s
t 65 13 w
h 83 48 e
h 40 23 s
t 38 53 w
f 73 22 e
f 62 27 n
h 82 33 s
t 40 18 n
123 18

171 2
10
h 93 0 n
r 126 1 e
r 52 1 e
f 89 0 s
f 170 0 n
h 154 1 s
f 50 0 e
f 39 1 s
h 48 1 e
t 108 1 e
73 178

145 109
5
f 136 39 n
t 87 16 n
f 83 90 w
r 129 80 n
f 99 2 w
194 168

58 41
15
r 56 13 s
f 8 13 e
r 20 34 e
t 8 17 n
f 4 13 s
r 7 25 e
h 20 23 n
f 35 14 n
f 54 17 w
t 28 28 s
r 12 15 n
t 40 35 e
r 34 26 e
f 30 40 w
t 26 21 w
16 87

142 200
10
f 30 41 e
h 111 155 w
h 48 160 w
t 102 146 n
t 110 124 s
h 124 96 n
t 75 85 s
r 29 111 s
t 82 192 n
f 103 80 w
40 1

113 196
13
t 50 12 e
t 33 175 s
h 26 5 w
r 5 24 w
r 94 57 n
r 25 0 e
t 56 193 s
h 82 11 w
t 81 73 s
h 52 44 s
r 90 44 e
t 49 114 e
f 22 95 n
181 121

170 163
2
r 25 92 n
h 14 43 s
38 191

95 100
7
f 73 35 w
t 17 88 e
r 31 75 w
h 76 15 s
h 91 80 e
h 8 18 w
h 77 87 e
158 118

49 23
7
h 30 5 e
t 2 19 n
f 46 9 n
t 42 15 s
r 10 7 e
r 35 21 n
h 9 11 w
122 44

50 67
15
h 38 60 s
r 36 2 e
t 29 25 e
f 39 32 n
f 27 17 e
r 13 54 w
r 37 33 e
h 45 38 e
f 38 22 e
r 46 5 n
f 13 39 s
h 35 48 w
r 27 32 s
h 7 26 e
h 26 52 s
175 40

4 21
5
t 0 9 n
t 1 3 w
h 2 2 w
r 0 10 w
f 0 10 n
86 26

177 148
10
f 36 39 n
h 5 89 s
r 148 27 w
f 42 138 n
f 83 94 e
t 42 90 n
r 101 41 s
t 161 50 s
f 46 97 n
t 164 18 w
71 39

196 67
5
t 105 34 n
t 160 62 n
h 48 20 n
r 19 53 s
h 116 31 w
56 29

57 24
7
r 49 8 n
r 53 13 n
f 43 10 s
f 26 2 s
f 5 19 e
t 1 15 n
r 43 16 w
65 56

190 124
6
r 187 49 w
t 65 34 e
t 14 72 e
r 104 83 n
t 11 109 n
r 177 44 s
87 134

102 62
10
h 41 1 n
f 5 56 n
t 93 24 n
t 77 20 s
t 45 22 w
f 11 17 e
r 7 19 w
f 8 22 n
h 79 55 e
t 5 58 w
14 187
