20

3 26
9
t 0 15 w
f 1 6 s
r 1 2 s
r 1 0 s
r 1 3 w
r 1 8 e
f 1 2 w
r 1 0 n
t 0 10 w
31 6

34 20
6
t 9 15 e
r 19 5 w
f 14 16 s
r 7 5 e
r 7 15 w
r 30 15 s
19 1

17 45
5
h 11 21 w
f 13 9 e
h 3 11 w
f 7 15 w
t 0 38 e
26 5

11 47
15
t 1 23 s
t 1 26 w
h 1 29 n
h 9 42 e
r 7 14 n
r 4 39 s
h 2 31 e
t 2 11 w
t 4 29 n
t 6 32 e
f 4 8 w
t 3 34 n
f 9 2 s
r 8 44 w
r 7 43 n
23 9

44 31
8
t 37 18 w
f 26 28 e
f 23 26 s
f 26 21 e
h 31 22 e
h 10 30 w
r 23 8 s
h 35 30 n
21 4

36 37
5
t 3 16 n
r 33 10 s
t 27 22 w
h 34 17 e
f 26 3 e
21 4

4 29
8
h 0 25 n
t 0 2 s
f 3 0 n
h 1 26 w
f 2 2 n
t 0 11 s
t 1 11 s
r 2 13 s
23 1

12 33
8
r 1 4 n
t 7 17 w
t 4 0 e
r 0 6 w
f 7 17 w
t 5 25 s
f 6 4 n
t 8 14 n
12 4

37 23
6
f 21 19 n
f 11 12 n
r 14 3 e
f 2 2 n
h 24 14 w
r 34 15 w
36 9

45 50
14
r 39 33 n
r 17 34 e
t 6 11 w
h 10 46 w
r 43 22 n
r 38 15 w
t 15 37 s
h 36 7 s
h 31 18 e
t 5 5 w
h 11 8 e
t 28 23 n
r 30 14 e
r 41 46 e
36 10

27 36
9
t 7 11 n
h 3 2 s
r 22 34 w
t 7 22 w
r 13 8 n
f 18 13 s
h 5 21 s
f 9 21 s
t 13 9 e
22 8

24 31
10
h 16 28 s
h 7 15 n
t 23 18 s
h 5 25 s
h 16 12 w
f 5 11 n
f 9 3 n
r 0 11 e
r 8 22 w
h 8 24 e
32 9

13 27
14
f 4 24 s
h 9 2 n
f 6 22 s
r 9 14 s
h 10 19 w
f 2 11 n
f 0 18 s
h 5 0 w
r 10 5 e
h 12 3 e
f 8 9 n
f 4 10 s
h 5 14 s
r 7 9 s
29 7

11 4
10
h 1 0 w
h 1 0 e
h 2 3 e
t 1 3 w
r 8 1 e
t 2 3 e
h 7 2 n
t 0 3 w
f 3 0 e
t 7 0 n
44 5

27 41
10
h 7 21 n
f 9 23 s
f 9 38 s
h 24 6 e
h 10 12 w
t 24 35 e
h 5 40 n
h 24 18 w
r 0 21 n
r 22 37 s
36 4

1 47
5
h 0 13 w
t 0 23 e
h 0 12 n
r 0 34 s
t 0 23 e
11 10

9 18
7
t 8 5 w
f 8 5 w
r 2 0 n
f 2 15 w
t 1 4 n
r 4 11 e
f 1 14 s
45 9

34 30
5
t 19 6 e
r 31 10 s
t 25 28 s
h 29 22 s
h 7 13 n
26 2

39 5
10
r 27 2 n
h 26 3 s
h 38 1 n
f 13 4 e
r 9 2 e
f 33 2 s
t 30 0 w
h 19 3 n
f 37 1 w
r 16 1 n
20 3

29 42
9
t 11 20 s
h 7 16 e
t 25 35 w
t 9 13 n
r 16 34 s
h 2 13 e
t 1 40 e
t 8 12 s
r 7 17 n
44 10
