22

109 19
8
f 65 10 s
t 105 17 e
f 7 12 n
r 58 6 n
r 95 3 e
r 96 8 n
h 95 6 w
f 3 15 w
183 196

195 194
9
f 137 48 e
f 172 54 n
t 131 102 w
t 50 47 e
t 65 135 n
r 141 45 e
r 84 5 w
f 160 138 w
t 99 155 n
96 127

50 119
9
r 48 114 s
r 10 43 e
f 11 30 w
t 45 59 w
h 19 108 e
f 17 11 n
r 22 113 w
f 28 57 w
r 35 16 e
123 126

78 128
8
h 17 123 w
t 74 10 n
f 47 56 e
h 19 89 n
t 7 94 n
r 9 40 s
t 14 104 w
f 23 113 s
75 116

60 193
12
r 44 140 w
f 53 113 w
r 39 40 s
r 13 181 n
t 12 29 e
f 3 172 w
h 39 9 s
t 15 161 w
t 28 125 w
t 45 52 n
r 11 58 n
f 53 12 n
103 75

157 128
6
t 128 71 n
r 16 60 s
f 119 120 e
f 69 15 w
t 0 54 n
f 63 115 s
97 150

120 25
11
f 27 4 w
h 41 2 e
t 70 9 s
h 74 18 e
f 62 12 n
r 86 6 s
f 113 18 s
h 36 20 n
t 48 12 n
f 100 3 n
r 31 2 w
40 3

198 180
9
t 81 175 s
t 39 112 s
t 127 156 w
h 141 148 e
f 192 39 e
f 171 145 n
f 137 14 n
t 15 145 w
t 159 118 n
24 158

163 24
8
f 57 8 s
r 117 4 n
f 97 3 n
t 56 7 w
h 124 14 s
t 100 5 s
r 17 11 s
r 140 6 w
68 95

121 142
8
r 71 48 e
f 59 83 n
t 17 29 s
t 30 66 w
h 48 110 e
r 37 31 e
r 16 123 w
t 97 57 w
198 56

137 173
8
h 38 26 w
h 24 90 s
t 74 50 n
h 77 124 w
h 94 151 e
h 91 114 w
h 27 141 w
t 123 79 s
55 94

182 85
9
t 169 42 s
r 52 4 e
t 71 16 n
f 28 55 s
t 117 35 n
h 159 0 n
r 167 28 n
f 77 26 e
r 24 78 e
51 188

157 26
5
r 125 18 e
f 63 9 s
r 15 0 w
r 90 12 e
t 19 25 s
161 52

173 31
13
h 140 9 w
h 163 29 w
t 134 12 s
h 153 2 e
f 20 7 e
f 123 8 w
r 89 2 s
h 132 7 w
r 55 30 e
f 137 29 s
f 47 14 n
h 76 8 w
t 118 11 w
191 82

57 51
11
h 46 6 s
r 51 23 e
t 50 23 w
r 27 25 w
f 51 21 e
f 27 26 s
r 32 21 w
f 55 5 s
r 11 35 n
f 25 11 n
h 50 9 w
178 128

192 110
8
r 19 22 w
h 102 27 n
h 63 24 w
h 72 63 s
r 22 72 w
t 55 57 n
h 70 105 w
r 99 12 n
41 68

6 138
7
t 4 75 e
t 5 49 n
r 3 75 s
f 1 37 w
f 2 37 n
t 4 103 n
r 5 104 e
75 149

87 133
5
r 5 130 e
t 70 24 e
h 39 47 w
t 29 67 e
t 42 57 e
18 3

67 119
12
f 41 51 w
f 22 49 s
t 56 90 s
t 11 82 n
r 18 18 w
t 31 71 s
r 52 44 e
t 34 0 n
f 31 73 s
t 58 81 s
t 4 104 w
h 59 34 e
68 91

145 151
7
t 126 120 e
t 105 41 s
h 89 68 w
r 60 75 e
h 68 118 e
h 51 116 s
h 127 82 s
192 140

137 78
11
r 86 77 s
r 3 66 e
h 43 58 s
h 102 27 e
r 96 51 s
f 100 29 n
h 115 71 w
r 48 53 n
r 103 13 s
h 29 72 s
r 38 20 e
151 181

117 103
5
f 24 47 n
t 100 82 s
t 8 85 w
t 9 64 n
t 13 68 e
9 97
