22

64 36
10
r 44 23 s
r 32 32 w
f 13 18 w
h 11 20 e
t 32 3 w
r 34 9 s
f 37 16 e
h 7 25 e
t 12 21 n
r 55 5 s
8 9

119 27
4
t 63 16 e
t 93 7 w
r 78 11 s
h 84 21 w
18 6

150 15
2
h 57 7 e
h 17 14 e
12 6

122 77
10
f 31 3 s
r 13 34 n
t 17 4 n
r 57 36 n
t 9 35 w
f 28 43 e
f 104 10 n
r 109 72 e
f 51 43 s
t 50 12 n
9 6

65 155
6
t 63 22 w
r 64 34 n
f 17 16 n
f 0 33 s
t 46 40 w
f 7 111 s
10 7

174 75
8
h 24 62 n
r 169 23 e
f 6 68 s
t 65 14 n
f 105 43 s
h 172 24 e
h 77 34 s
f 124 28 s
20 10

24 26
4
r 14 2 e
f 19 22 e
t 14 7 e
r 19 2 n
7 6

38 80
7
h 5 54 w
r 23 42 n
t 23 71 w
r 21 23 w
f 11 74 s
r 15 39 n
r 18 39 n
4 4

166 40
9
t 25 31 s
t 105 31 e
t 2 15 n
h 46 23 w
t 10 10 w
f 34 35 e
f 110 17 s
r 115 31 w
h 146 11 w
9 9

105 126
1
t 98 51 n
13 10

22 9
5
r 7 6 w
t 19 1 e
t 10 6 w
f 10 6 w
f 14 5 w
20 6

112 79
2
h 96 32 e
r 92 71 e
17 7

39 195
9
r 16 89 w
t 36 87 n
t 17 49 e
f 8 45 s
r 0 107 w
r 11 31 n
r 13 191 n
f 10 162 w
t 5 70 e
2 10

47 64
9
r 15 18 e
t 1 48 s
t 13 13 n
t 46 46 n
r 34 60 s
f 23 21 s
h 23 12 e
r 31 12 w
f 27 54 e
18 4

130 164
4
r 72 92 e
t 77 139 e
f 100 20 e
f 2 144 s
20 8

115 133
5
t 47 89 w
t 34 0 e
f 29 106 w
h 73 10 e
t 6 104 e
19 7

186 43
3
r 88 30 w
t 56 24 n
r 35 9 n
16 10

17 172
10
t 14 136 s
r 9 161 e
h 16 168 e
f 6 118 s
f 14 123 w
r 10 63 w
f 0 125 e
t 5 119 s
r 3 170 s
r 13 152 e
1 6

22 97
5
f 1 93 n
r 6 67 s
h 7 79 w
h 17 94 s
r 1 30 n
6 5

177 189
1
h 53 91 s
9 4

120 29
2
f 99 9 w
r 98 27 e
12 8

91 181
10
t 3 79 s
t 50 61 n
r 83 24 w
r 20 39 s
h 82 63 w
f 5 24 s
f 85 66 n
t 57 55 w
r 64 89 e
t 22 63 w
15 9
