28

14 15
4
t 10 7 n
t 0 3 n
t 3 6 w
h 5 5 n
4 4

13 7
5
f 5 1 e
h 10 5 w
t 8 6 n
t 0 3 e
h 10 5 e
6 1

15 5
6
t 11 2 e
h 9 2 s
t 10 3 e
h 6 1 w
t 4 1 w
f 12 0 w
4 6

15 12
3
f 13 1 n
t 9 7 s
t 6 7 s
5 6

9 15
1
t 8 14 s
5 5

9 11
6
t 5 1 e
t 7 0 w
h 4 10 w
f 6 3 s
t 1 9 s
h 0 3 e
1 4

13 11
2
f 1 0 s
h 5 9 e
2 5

13 7
3
h 11 1 s
r 4 2 w
f 9 6 s
6 3

15 15
2
r 6 9 s
t 0 10 n
1 5

11 6
6
f 6 4 s
f 2 3 e
f 7 0 n
r 6 3 e
t 1 2 w
h 2 5 e
1 1

6 12
3
h 1 0 s
t 4 11 w
f 4 10 n
4 3

12 8
2
r 1 6 s
r 7 2 e
2 2

12 6
4
r 0 0 e
h 5 3 n
r 11 5 w
h 9 3 n
1 5

6 14
4
f 3 1 w
h 4 8 s
t 2 12 e
t 5 6 n
6 4

13 12
4
f 1 9 w
h 9 8 s
h 8 11 s
t 3 5 w
2 6

15 12
4
f 11 7 w
r 8 6 n
f 9 3 w
f 13 4 n
5 4

13 6
3
t 7 3 w
r 9 0 e
r 3 1 w
1 3

5 15
2
t 1 10 e
f 0 3 n
5 4

12 9
5
h 3 1 e
h 5 8 w
r 4 7 e
h 2 1 e
t 10 3 s
1 2

8 6
3
f 5 2 e
f 6 4 n
t 2 5 n
2 4

11 11
3
t 5 8 e
f 0 10 e
r 1 7 s
4 6

7 10
6
t 1 6 s
h 1 3 e
f 0 0 s
h 2 1 s
h 2 2 w
h 4 5 s
6 1

6 8
3
t 0 4 e
f 1 6 s
r 1 0 e
4 3

9 7
1
f 6 6 e
3 3

5 7
1
r 4 2 n
4 4

10 11
1
f 6 7 e
6 4

15 14
5
h 14 9 s
f 8 5 s
h 8 1 w
h 13 10 s
t 0 12 e
5 1

5 10
4
h 2 5 w
t 4 2 s
f 2 8 w
r 0 3 e
4 4
