30

5 7
2
f 1 2 e
h 0 3 n
82 39

6 6
5
r 1 5 n
h 4 5 e
t 0 3 w
t 5 1 s
f 4 1 n
49 58

5 7
2
t 2 5 e
f 2 0 e
100 65

5 7
3
h 0 4 w
f 3 6 n
r 4 3 e
48 68

6 6
4
t 0 2 n
r 3 1 s
f 0 0 s
h 1 0 s
7 5

8 8
5
f 1 2 n
h 0 0 w
h 1 7 s
t 1 1 n
f 5 1 s
2 61

10 9
2
h 8 4 n
f 2 7 w
59 88

10 7
4
t 7 4 w
t 4 4 s
t 6 3 e
h 3 6 n
52 21

6 5
5
h 5 2 w
r 2 4 n
h 5 3 s
h 0 4 e
f 3 0 n
56 20

7 6
1
h 0 5 e
48 16

8 10
3
t 3 7 e
f 2 2 s
h 0 0 s
74 59

5 10
4
t 3 6 w
f 2 6 s
f 2 3 s
t 2 2 n
91 33

10 10
1
t 1 3 e
2 78

6 5
5
f 0 4 s
t 4 2 e
h 3 1 s
t 1 0 n
f 1 1 n
62 36

9 8
5
r 7 6 s
t 1 4 w
h 0 7 s
f 6 7 n
f 0 2 n
16 6

8 5
1
r 6 4 e
66 96

5 5
3
r 2 4 w
t 2 0 s
r 2 3 w
68 99

5 10
3
r 0 2 e
r 4 9 e
t 3 2 s
98 24

10 8
2
f 4 2 w
h 2 6 n
50 66

7 9
1
h 5 3 e
56 47

8 7
5
f 4 4 s
h 2 5 n
h 1 4 e
r 1 0 w
f 4 1 w
13 45

7 5
5
r 0 2 s
t 6 3 w
r 4 0 w
t 2 4 e
h 3 1 n
26 4

5 7
4
h 4 5 w
r 3 6 w
t 1 4 s
h 0 4 n
14 97

6 9
1
r 4 1 w
34 44

6 8
5
f 5 5 s
t 0 5 e
t 4 0 s
t 2 0 n
r 3 1 s
47 13

5 10
3
h 2 1 w
f 2 7 n
r 3 5 s
40 56

9 9
5
h 4 4 w
h 4 3 n
h 8 6 n
h 8 7 w
f 2 7 e
4 28

9 9
1
r 7 2 w
96 92

10 10
4
t 6 7 n
t 2 5 e
f 1 9 w
t 6 9 e
77 82

8 8
2
t 5 0 e
r 6 5 w
49 36
